^C:\USERS\DELL\SOURCE\REPOS\HOMEWORK14\DEBUG\HOMEWORK14.OBJ
C:\USERS\DELL\SOURCE\REPOS\HOMEWORK14\DEBUG\HOMEWORK14.EXE
C:\USERS\DELL\SOURCE\REPOS\HOMEWORK14\DEBUG\HOMEWORK14.ILK
C:\USERS\DELL\SOURCE\REPOS\HOMEWORK14\DEBUG\HOMEWORK14.PDB
